Get table of absolute percent cover for given park and year — get_pct_cover_tbl • npstools
…
#>   Event_ID = col_integer(),
#>   Protocol_ID = col_integer(),
#>   Length_cm = col_integer(),
#>   Point_No = col_integer(),
#>   Substrate = col_character(),
#>   MaxHeight_cm = col_integer(),
#>   MaxHeight_cm_DEAD = col_character(),
#>   Transect_Event_Comments = col_character(),
#>   Entered_by = col_character(),
#>   Entered_date = col_character(),
#>   Updated_by = col_character(),
#>   Updated_date = col_character(),
#>   Import_date = col_character()
#> )
#> # A tibble: 58 x 11
#> # Groups:   SurveyYear, Park, Vegetation_Community, FxnGroup [50]
#>    SurveyYear Park  Vegetation_Community FxnGroup Nativity NofTransects Average StdDev MinRange
#>         <int> <chr> <chr>                <chr>    <chr>           <int>   <dbl>  <dbl>    <dbl>
#>  1       2015 CABR  Black Sage Scrub     Grass    Native              9   0.556  0.882       0.
#>  2       2015 CABR  Black Sage Scrub     Grass    Nonnati…            9   0.222  0.441       0.
#>  3       2015 CABR  Black Sage Scrub     Herbace… Native              9   1.67   1.58        0.
#>  4       2015 CABR  Black Sage Scrub     Shrub    Native              9   5.11   1.27        3.
#>  5       2015 CABR  Black Sage Scrub     Sub-shr… Native              9   0.333  0.500       0.
#>  6       2015 CABR  Black Sage Scrub     Vine     Native              9   0.556  0.527       0.
#>  7       2015 CABR  Black Sage Scrub     <NA>     <NA>                9   1.22   0.441       1.
#>  8       2015 CABR  California Brittle … Grass    Native             10   0.500  0.707       0.
#>  9       2015 CABR  California Brittle … Grass    Nonnati…           10   0.400  0.516       0.
#> 10       2015 CABR  California Brittle … Herbace… Native             10   1.60   1.26        0.
#> # ... with 48 more rows, and 2 more variables: MaxRange <dbl>, Query_type <chr>
…
